<svg width="36" height="36" viewBox="0 0 36 36" fill="none" xmlns="http://www.w3.org/2000/svg">
<path d="M24.0281 10H8.91217C8.41048 10 8 10.4536 8 11.0079V21.1843C8 21.7386 8.41048 22.1922 8.91217 22.1922H12.5771V23.4377C12.5869 23.5565 12.5869 23.7005 12.5771 23.8193V25.1296C12.5771 25.1872 12.6097 25.2412 12.6586 25.2628C12.6749 25.27 12.6912 25.2736 12.7074 25.2736C12.74 25.2736 12.7759 25.2592 12.7987 25.2304L15.5515 22.1886H24.0249C24.5265 22.1886 24.937 21.735 24.937 21.1807V11.0079C24.9403 10.45 24.5298 10 24.0281 10ZM24.6797 11.7819C24.6797 11.8251 24.6797 11.8682 24.6797 11.9078V21.1807C24.6797 21.5767 24.3865 21.9006 24.0281 21.9006H15.4993C15.4635 21.9006 15.4309 21.915 15.4081 21.9438L13.7173 23.8121C13.6945 23.8409 13.6685 23.8697 13.6424 23.8949L12.841 24.7804V23.8265C12.8378 23.7473 12.8378 23.6645 12.841 23.5889V22.0482C12.841 21.969 12.7824 21.9042 12.7107 21.9042H8.91217C8.55382 21.9042 8.26062 21.5803 8.26062 21.1843V11.0079C8.26062 10.612 8.55382 10.288 8.91217 10.288H24.0281C24.3865 10.288 24.6797 10.612 24.6797 11.0079V11.5767C24.6829 11.6451 24.6829 11.7135 24.6797 11.7819Z" fill="#E1CDA9" stroke="#E1CDA9" stroke-width="0.5"/>
<path d="M16.5694 12.2212C15.9895 12.1924 15.439 12.4192 15.0187 12.8619C14.5985 13.3047 14.3672 13.9023 14.3672 14.543C14.3672 14.6222 14.4258 14.687 14.4975 14.687C14.5692 14.687 14.6278 14.6222 14.6278 14.543C14.6278 13.9814 14.8298 13.4595 15.1979 13.0707C15.566 12.682 16.0482 12.484 16.5564 12.5092C17.4946 12.556 18.2635 13.4055 18.3091 14.4458C18.3449 15.2773 17.9246 16.0369 17.247 16.3861C16.69 16.674 16.3414 17.2608 16.3414 17.9159V18.4847C16.3414 18.5639 16.4 18.6287 16.4717 18.6287C16.5434 18.6287 16.602 18.5639 16.602 18.4847V17.9195C16.602 17.376 16.8919 16.89 17.3578 16.6488C18.1331 16.2493 18.612 15.3781 18.5729 14.4314C18.5208 13.2471 17.6445 12.2752 16.5694 12.2212Z" fill="#E1CDA9" stroke="#E1CDA9" stroke-width="0.5"/>
<path d="M16.4702 19.6016C16.3985 19.6016 16.3398 19.6664 16.3398 19.7456V20.2315C16.3398 20.3107 16.3985 20.3755 16.4702 20.3755C16.5418 20.3755 16.6005 20.3107 16.6005 20.2315V19.7456C16.6005 19.6664 16.5418 19.6016 16.4702 19.6016Z" fill="#E1CDA9" stroke="#E1CDA9" stroke-width="0.5"/>
<path d="M27.0865 11.7227H24.7116C24.7149 11.7911 24.7149 11.863 24.7149 11.9314C24.7149 11.9566 24.7149 11.9854 24.7149 12.0106H27.0865C27.4482 12.0106 27.7381 12.3346 27.7381 12.7306V22.907C27.7381 23.3029 27.4449 23.6269 27.0865 23.6269H23.2815C23.2098 23.6269 23.1512 23.6917 23.1512 23.7709V26.5067L20.5776 23.6701C20.5515 23.6413 20.5189 23.6269 20.4863 23.6269H14.0425C14.0067 23.6701 13.9676 23.7133 13.9285 23.7529C13.8894 23.7997 13.8471 23.8537 13.7982 23.9005C13.7949 23.9041 13.7884 23.9113 13.7852 23.9149H20.4277L23.187 26.9566C23.2131 26.9854 23.2457 26.9998 23.2782 26.9998C23.2945 26.9998 23.3108 26.9962 23.3271 26.989C23.376 26.9674 23.4085 26.9134 23.4085 26.8558V23.9185H27.0833C27.5882 23.9185 27.9987 23.4649 27.9987 22.9106V12.7306C28.002 12.1726 27.5915 11.7227 27.0865 11.7227Z" fill="#E1CDA9" stroke="#E1CDA9" stroke-width="0.5"/>
</svg>
