<svg width="24" height="21" viewBox="0 0 24 21" fill="none" xmlns="http://www.w3.org/2000/svg">
<g clip-path="url(#clip0_678_3608)">
<path d="M21.7972 3.95357C19.43 2.58707 16.403 3.39904 15.035 5.76632L11.5867 11.7398C10.5889 13.4648 11.8735 14.0675 13.3058 14.9263L16.6239 16.8414C17.7476 17.4896 19.1828 17.1048 19.8309 15.9826L23.3759 9.84369C24.5667 7.78082 23.8601 5.14447 21.7972 3.95357V3.95357Z" fill="#EA4335"/>
<path d="M17.8956 6.42598L14.5775 4.51085C12.7458 3.49404 11.7085 3.42673 10.9565 4.62204L6.06264 13.0974C4.69614 15.4631 5.50951 18.4887 7.8753 19.8522C9.93817 21.0431 12.5746 20.3365 13.7655 18.2736L18.753 9.63438C19.404 8.51079 19.0193 7.07407 17.8956 6.42598V6.42598Z" fill="#FBBC04"/>
<path d="M18.5343 2.06905L16.2037 0.722892C13.6258 -0.76492 10.3296 0.117267 8.84168 2.69511L4.40431 10.3804C3.7489 11.5143 4.13806 12.9656 5.27196 13.6195L7.88196 15.1264C9.17084 15.8712 10.8182 15.4293 11.563 14.1404L16.6323 5.3607C17.6828 3.54223 20.0076 2.91898 21.8261 3.96945L18.5343 2.06895V2.06905Z" fill="#34A853"/>
<path d="M9.47193 4.89401L6.95258 3.44267C5.82899 2.79598 4.39377 3.17923 3.74567 4.30001L0.722892 9.52301C-0.76492 12.0935 0.117267 15.3824 2.69511 16.866L4.61314 17.9705L6.93946 19.3106L7.94896 19.8914C6.15674 18.6918 5.58758 16.288 6.68333 14.3948L7.46614 13.0429L10.3322 8.0906C10.9789 6.97282 10.5941 5.5406 9.47193 4.89392V4.89401Z" fill="#4285F4"/>
</g>
</svg>
