<svg width="12" height="12" viewBox="0 0 12 12" fill="none" xmlns="http://www.w3.org/2000/svg">
<path d="M6 3.81818C4.79455 3.81818 3.81818 4.79455 3.81818 6C3.81818 7.20545 4.79455 8.18182 6 8.18182C7.20545 8.18182 8.18182 7.20545 8.18182 6C8.18182 4.79455 7.20545 3.81818 6 3.81818ZM10.8764 5.45455C10.7528 4.34843 10.2568 3.3172 9.4698 2.5302C8.6828 1.74319 7.65157 1.24719 6.54545 1.12364V0H5.45455V1.12364C4.34843 1.24719 3.3172 1.74319 2.5302 2.5302C1.74319 3.3172 1.24719 4.34843 1.12364 5.45455H0V6.54545H1.12364C1.24719 7.65157 1.74319 8.6828 2.5302 9.4698C3.3172 10.2568 4.34843 10.7528 5.45455 10.8764V12H6.54545V10.8764C7.65157 10.7528 8.6828 10.2568 9.4698 9.4698C10.2568 8.6828 10.7528 7.65157 10.8764 6.54545H12V5.45455H10.8764ZM6 9.81818C3.88909 9.81818 2.18182 8.11091 2.18182 6C2.18182 3.88909 3.88909 2.18182 6 2.18182C8.11091 2.18182 9.81818 3.88909 9.81818 6C9.81818 8.11091 8.11091 9.81818 6 9.81818Z" fill="#E1CDA9"/>
</svg>
