{
  "project_info": {
    "project_number": "204407207898",
    "project_id": "furrybaxi-96001",
    "storage_bucket": "furrybaxi-96001.appspot.com"
  },
  "client": [
    {
      "client_info": {
        "mobilesdk_app_id": "1:204407207898:android:f5e7c3f1194ef3ed6132e3",
        "android_client_info": {
          "package_name": "com.furrybaxi"
        }
      },
      "oauth_client": [
        {
          "client_id": "204407207898-tqf9autvrl0u52o5d49ala0vslamd8i0.apps.googleusercontent.com",
          "client_type": 1,
          "android_info": {
            "package_name": "com.furrybaxi",
            "certificate_hash": "8d9c37bc2ac1e360f461e88c38fe400f5e5e676b"
          }
        },
        {
          "client_id": "204407207898-v6t5a77uilpf5jt4u7kvprqm1u4q3lov.apps.googleusercontent.com",
          "client_type": 1,
          "android_info": {
            "package_name": "com.furrybaxi",
            "certificate_hash": "5e8f16062ea3cd2c4a0d547876baa6f38cabf625"
          }
        },
        {
          "client_id": "204407207898-knmnd5fu51v5epugcqsp32lf5741cbjs.apps.googleusercontent.com",
          "client_type": 3
        }
      ],
      "api_key": [
        {
          "current_key": "AIzaSyCKc816-mVqGmpQhaTuVWSV7t68uvUnZWY"
        }
      ],
      "services": {
        "appinvite_service": {
          "other_platform_oauth_client": [
            {
              "client_id": "204407207898-knmnd5fu51v5epugcqsp32lf5741cbjs.apps.googleusercontent.com",
              "client_type": 3
            }
          ]
        }
      }
    }
  ],
  "configuration_version": "1"
}